{
    "wallpaper": "https://www.dmoe.cc/random.php",
    "spider": "https://gitlab.com/hero1898/DSZB/-/raw/main/js/xjy.jar;md5;c80207edebbe5019a688fd2eb653e005",
    "lives":[{"group":"redirect","channels":[{"name":"redirect","urls":["proxy://do=live&type=txt&ext=aHR0cHM6Ly9naXRsYWIuY29tL2hlcm8xODk4L0RTWkIvLS9yYXcvbWFpbi9UVjIubTN1"]}]}],
    "rules": [{"host":"*","rule":["default.365yg.com"]},{"host":"dyxs20.com","rule":[".m3u8"]},{"host":"www.agemys.cc","rule":["cdn-tos","obj/tos-cn"]},{"host":"www.sharenice.net","rule":["http.*?/play.{0,3}\\?[^url]{2,8}=.*"]},{"host":"www.sharenice.net","rule":["qianpailive.com","vid="]},{"host":"*","rule":["douyin.com/aweme","video_id="]},{"host":"*","rule":["huoshan.com","/item/video/"]},{"host":"*",     "rule":["http((?!http).){12,}?\\.(m3u8|mp4|flv|avi|mkv|rm|wmv|mpg|m4a)\\?.*"]},{"host":"*","rule":["http((?!http).){12,}\\.(m3u8|mp4|flv|avi|mkv|rm|wmv|mpg|m4a)"]}], 


    "sites": [
   {
            "key": "知识",
            "name": "🌏知识┃学堂",
            "type": 3,
            "api": "csp_Bili",
            "searchable": 0,
            "quickSearch": 0,
            "filterable": 0,
"ext":"https://agit.ai/895322156/Q/raw/branch/master/XB/知识.json", "jar":""
                   },
        {
            "key": "儿童",
            "name": "🌏少儿┃教育",
            "type": 3,
            "api": "csp_Bili",
            "searchable": 0,
            "quickSearch": 0,
            "filterable": 0,
"ext":"https://agit.ai/895322156/Q/raw/branch/master/XB/少儿.json", "jar":""
                    },
        {
            "key": "小学",
            "name": "🌏小学┃课堂",
            "type": 3,
            "api": "csp_Bili",
            "searchable": 0,
            "quickSearch": 0,
            "filterable": 0,
"ext":"https://agit.ai/895322156/Q/raw/branch/master/XB/小学.json", "jar":""
                    },
        {
            "key": "初中",
            "name": "🌏初中┃课堂",
            "type": 3,
            "api": "csp_Bili",
            "searchable": 0,
            "quickSearch": 0,
            "filterable": 0,
"ext":"https://agit.ai/895322156/Q/raw/branch/master/XB/初中.json", "jar":""
                   },
        {
            "key": "高中",
            "name": "🌏高中┃课堂",
            "type": 3,
            "api": "csp_Bili",
            "searchable": 0,
            "quickSearch": 0,
            "filterable": 0,
"ext":"https://agit.ai/895322156/Q/raw/branch/master/XB/高中.json", "jar":""
                    },
{"key":"幼小衔接","name":"🌏幼小衔接","type":3,"api":"csp_Bili","searchable":0,"quickSearch":1,"filterable":1,"ext":"https://agit.ai/895322156/Q/raw/branch/master/XB/幼小衔接.json","jar": ""},
		{"key":"幼儿启蒙","name":"🌏幼儿启蒙","type":3,"api":"csp_Bili","searchable":0,"quickSearch":1,"filterable":1,"ext":"https://agit.ai/895322156/Q/raw/branch/master/XB/幼儿启蒙.json","jar": ""},
		{"key":"csp_hiker_兔小贝","name":"🌏兔小贝","type":3,"api":"csp_XYQHiker","searchable":0,"quickSearch":1,"filterable":1,"ext":"https://agit.ai/895322156/Q/raw/branch/master/XB/兔小贝.json","jar": ""},
		{"key":"csp_hiker_兔小贝2","name":"🌏兔小贝2","type":3,"api":"csp_XYQHiker","searchable":0,"quickSearch":1,"filterable":1,"ext":"https://agit.ai/895322156/Q/raw/branch/master/XB/兔小贝2.json","jar": ""},
		
		{"key":"小灯塔","name":"🌏小灯塔","type":3,"api":"csp_Bili","searchable":0,"quickSearch":1,"filterable":1,"ext":"https://agit.ai/895322156/Q/raw/branch/master/XB/小灯塔百科.json"
,"jar": ""},
		{"key":"小灯塔科学","name":"🌏小灯塔科学","type":3,"api":"csp_Bili","searchable":0,"quickSearch":1,"filterable":1,"ext":"https://agit.ai/895322156/Q/raw/branch/master/XB/小灯塔科学.json","jar": ""},
		{"key":"小灯塔地理","name":"🌏小灯塔地理","type":3,"api":"csp_Bili","searchable":0,"quickSearch":1,"filterable":1,"ext":"https://agit.ai/895322156/Q/raw/branch/master/XB/小灯塔地理.json","jar": ""},
		{"key":"小灯塔国学","name":"🌏小灯塔国学","type":3,"api":"csp_Bili","searchable":0,"quickSearch":1,"filterable":1,"ext":"https://agit.ai/895322156/Q/raw/branch/master/XB/小灯塔国学.json","jar": ""},
		{"key":"小灯塔人文","name":"🌏小灯塔人文","type":3,"api":"csp_Bili","searchable":0,"quickSearch":1,"filterable":1,"ext":"https://agit.ai/895322156/Q/raw/branch/master/XB/小灯塔人文.json","jar": ""},
		
		{"key":"儿童拼音","name":"🌏儿童拼音","type":3,"api":"csp_Bili","searchable":0,"quickSearch":1,"filterable":1,"ext":"https://agit.ai/895322156/Q/raw/branch/master/XB/儿童拼音.json","jar": ""},
		{"key":"儿童识字","name":"🌏儿童识字","type":3,"api":"csp_Bili","searchable":0,"quickSearch":1,"filterable":1,"ext":"https://agit.ai/895322156/Q/raw/branch/master/XB/儿童识字.json","jar": ""},
		{"key":"儿童英语","name":"🌏儿童英语","type":3,"api":"csp_Bili","searchable":0,"quickSearch":1,"filterable":1,"ext":"https://agit.ai/895322156/Q/raw/branch/master/XB/儿童英语.json","jar": ""},
		{"key":"儿童硬笔","name":"🌏儿童硬笔","type":3,"api":"csp_Bili","searchable":0,"quickSearch":1,"filterable":1,"ext":"https://agit.ai/895322156/Q/raw/branch/master/XB/儿童硬笔.json","jar": ""},
		{"key":"儿童思维","name":"🌏儿童思维","type":3,"api":"csp_Bili","searchable":0,"quickSearch":1,"filterable":1,"ext":"https://agit.ai/895322156/Q/raw/branch/master/XB/儿童思维.json","jar": ""},
		{"key":"儿童口才","name":"🌏儿童口才","type":3,"api":"csp_Bili","searchable":0,"quickSearch":1,"filterable":1,"ext":"https://agit.ai/895322156/Q/raw/branch/master/XB/儿童口才.json","jar": ""},
		{"key":"儿童编程","name":"🌏儿童编程","type":3,"api":"csp_Bili","searchable":0,"quickSearch":1,"filterable":1,"ext":"https://agit.ai/895322156/Q/raw/branch/master/XB/儿童编程.json","jar": ""},
		{"key":"儿童武术","name":"🌏儿童武术","type":3,"api":"csp_Bili","searchable":0,"quickSearch":1,"filterable":1,"ext":"https://agit.ai/895322156/Q/raw/branch/master/XB/儿童武术.json","jar": ""},
		
		{"key":"兴趣培养","name":"🌏兴趣培养","type":3,"api":"csp_Bili","searchable":0,"quickSearch":1,"filterable":1,"ext":"https://agit.ai/895322156/Q/raw/branch/master/XB/兴趣培养.json","jar": ""},
		{"key":"央视经典","name":"🌏央视经典","type":3,"api":"csp_Bili","searchable":0,"quickSearch":1,"filterable":1,"ext":"https://agit.ai/895322156/Q/raw/branch/master/XB/央视经典.json","jar": ""},
		{"key":"益智动画","name":"🌏益智动画","type":3,"api":"csp_Bili","searchable":0,"quickSearch":1,"filterable":1,"ext":"https://agit.ai/895322156/Q/raw/branch/master/XB/益智动画.json","jar": ""},
		{"key":"小学语文","name":"🌏小学语文","type":3,"api":"csp_Bili","searchable":0,"quickSearch":1,"filterable":1,"ext":"https://agit.ai/895322156/Q/raw/branch/master/XB/小学语文.json","jar": ""},
		{"key":"小学数学","name":"🌏小学数学","type":3,"api":"csp_Bili","searchable":0,"quickSearch":1,"filterable":1,"ext":"https://agit.ai/895322156/Q/raw/branch/master/XB/小学数学.json","jar": ""},
		{"key":"小学英语","name":"🌏小学英语","type":3,"api":"csp_Bili","searchable":0,"quickSearch":1,"filterable":1,"ext":"https://agit.ai/895322156/Q/raw/branch/master/XB/小学英语.json","jar": ""},
		{"key":"小学教育","name":"🌏小学教育","type":3,"api":"csp_Bili","searchable":0,"quickSearch":1,"filterable":1,"ext":"https://agit.ai/895322156/Q/raw/branch/master/XB/小学教育.json","jar": ""}     
        
    ],
    "parses": [
        //{"name":"解析聚合","type":3,"url":"Demo"},
        //{"name":"Json并发","type":2,"url":"Parallel"},
        //{"name":"Json轮询","type":2,"url":"Sequence"},
        {"name":"1","type":0,"url":"https://jx.m3u8.pw/?url="},
        {"name":"2","type":0,"url":"https://jx.xmflv.com/?url="},
        {"name":"3","type":0,"url":"https://jx.bozrc.com:4433/player/?url=","ext":{"flag":["qq","腾讯","qiyi","爱奇艺","奇艺","youku","优酷","mgtv","芒果","letv","乐视","pptv","PPTV","sohu","bilibili","哔哩哔哩","哔哩"]}},
        {"name":"4","type":0,"url":"http://okjx.cc/?url=","parse":"1","ext":{"flag":["qq","腾讯","qiyi","爱奇艺","奇艺","youku","优酷","mgtv","芒果","letv","乐视","pptv","PPTV","sohu","bilibili","哔哩哔哩","哔哩"]}},
        {"name":"5","type":0,"url":"https://jx.yparse.com/index.php?url="},
        {"name":"6","type":0,"url":"https://jx.jsonplayer.com/player/?url="},
        {"name":"7","type":0,"url":"https://jx.aidouer.net/?url="},
        {"name":"8","type":0,"url":"https://jx.quankan.app/?url="}
        
    ],
    "flags": [
        "youku",
        "qq",
        "iqiyi",
        "qiyi",
        "letv",
        "sohu",
        "tudou",
        "pptv",
        "mgtv",
        "wasu",
        "bilibili",
        "renrenmi"
    ],
    "rules":[
        {
        "host":"www.iesdouyin.com",
        "rule":["playwm/?video_id="]
        },
        {
        "host":"v.douyin.com",
        "rule":["playwm/?video_id="]
        }
    ],
    "ijk": [
        {
            "group": "软解码",
            "options": [
                {
                    "category": 4,
                    "name": "opensles",
                    "value": "0"
                },
                {
                    "category": 4,
                    "name": "overlay-format",
                    "value": "842225234"
                },
                {
                    "category": 4,
                    "name": "framedrop",
                    "value": "1"
                },
                {
                    "category": 4,
                    "name": "soundtouch",
                    "value": "1"
                },
                {
                    "category": 4,
                    "name": "start-on-prepared",
                    "value": "1"
                },
                {
                    "category": 1,
                    "name": "http-detect-range-support",
                    "value": "0"
                },
                {
                    "category": 1,
                    "name": "fflags",
                    "value": "fastseek"
                },
                {
                    "category": 2,
                    "name": "skip_loop_filter",
                    "value": "48"
                },
                {
                    "category": 4,
                    "name": "reconnect",
                    "value": "1"
                },
                {
                    "category": 4,
                    "name": "enable-accurate-seek",
                    "value": "0"
                },
                {
                    "category": 4,
                    "name": "mediacodec",
                    "value": "0"
                },
                {
                    "category": 4,
                    "name": "mediacodec-auto-rotate",
                    "value": "0"
                },
                {
                    "category": 4,
                    "name": "mediacodec-handle-resolution-change",
                    "value": "0"
                },
                {
                    "category": 4,
                    "name": "mediacodec-hevc",
                    "value": "0"
                },
                {
                    "category": 1,
                    "name": "dns_cache_timeout",
                    "value": "600000000"
                }
            ]
        },
        {
            "group": "硬解码",
            "options": [
                {
                    "category": 4,
                    "name": "opensles",
                    "value": "0"
                },
                {
                    "category": 4,
                    "name": "overlay-format",
                    "value": "842225234"
                },
                {
                    "category": 4,
                    "name": "framedrop",
                    "value": "1"
                },
                {
                    "category": 4,
                    "name": "soundtouch",
                    "value": "1"
                },
                {
                    "category": 4,
                    "name": "start-on-prepared",
                    "value": "1"
                },
                {
                    "category": 1,
                    "name": "http-detect-range-support",
                    "value": "0"
                },
                {
                    "category": 1,
                    "name": "fflags",
                    "value": "fastseek"
                },
                {
                    "category": 2,
                    "name": "skip_loop_filter",
                    "value": "48"
                },
                {
                    "category": 4,
                    "name": "reconnect",
                    "value": "1"
                },
                {
                    "category": 4,
                    "name": "enable-accurate-seek",
                    "value": "0"
                },
                {
                    "category": 4,
                    "name": "mediacodec",
                    "value": "1"
                },
                {
                    "category": 4,
                    "name": "mediacodec-auto-rotate",
                    "value": "1"
                },
                {
                    "category": 4,
                    "name": "mediacodec-handle-resolution-change",
                    "value": "1"
                },
                {
                    "category": 4,
                    "name": "mediacodec-hevc",
                    "value": "1"
                },
                {
                    "category": 1,
                    "name": "dns_cache_timeout",
                    "value": "600000000"
                }
            ]
        }
    ],
    "ads": [
        "mimg.0c1q0l.cn",
        "www.googletagmanager.com",
        "www.google-analytics.com",
        "mc.usihnbcq.cn",
        "mg.g1mm3d.cn",
        "mscs.svaeuzh.cn",
        "cnzz.hhttm.top",
        "tp.vinuxhome.com",
        "cnzz.mmstat.com",
        "www.baihuillq.com",
        "s23.cnzz.com",
        "z3.cnzz.com",
        "c.cnzz.com",
        "stj.v1vo.top",
        "z12.cnzz.com",
        "img.mosflower.cn",
        "tips.gamevvip.com",
        "ehwe.yhdtns.com",
        "xdn.cqqc3.com",
        "www.jixunkyy.cn",
        "sp.chemacid.cn",
        "hm.baidu.com",
        "s9.cnzz.com",
        "z6.cnzz.com",
        "um.cavuc.com",
        "mav.mavuz.com",
        "wofwk.aoidf3.com",
        "z5.cnzz.com",
        "xc.hubeijieshikj.cn",
        "tj.tianwenhu.com",
        "xg.gars57.cn",
        "k.jinxiuzhilv.com",
        "cdn.bootcss.com",
        "ppl.xunzhuo123.com",
        "xomk.jiangjunmh.top",
        "img.xunzhuo123.com",
        "z1.cnzz.com",
        "s13.cnzz.com",
        "xg.huataisangao.cn",
        "z7.cnzz.com",
        "xg.huataisangao.cn",
        "z2.cnzz.com",
        "s96.cnzz.com",
        "q11.cnzz.com",
        "thy.dacedsfa.cn",
        "xg.whsbpw.cn",
        "s19.cnzz.com",
        "z8.cnzz.com",
        "s4.cnzz.com",
        "f5w.as12df.top",
        "ae01.alicdn.com",
        "www.92424.cn",
        "k.wudejia.com",
        "vivovip.mmszxc.top",
        "qiu.xixiqiu.com",
        "cdnjs.hnfenxun.com",
        "cms.qdwght.com"
    ]
}
